{
  "strings.Robot": "Roboter",
  "strings.GenericError": "Im Falle von Serverfehlern, versuchen Sie es bitte später bitte noch einmal.  Sollte das Problem weiterhin bestehen, kontaktieren Sie bitte unseren Kundenservice unter <a href='mailto:connect.support@kuka.com'>connect.support@kuka.com</a>",
  "strings.errorCodes.EmergencyStop": "Not-Halt",
  "strings.errorCodes.ExternalEmergencyStop": "Externer Not-Halt",
  "strings.errorCodes.SafetyFenceOpen": "Schutzgitter offen",
  "strings.errorCodes.EnablingSwitchRequired": "Zustimmungsschalter notwendig",
  "strings.errorCodes.SoftwareLimitSwitch": "Software-Endschalter",
  "strings.errorCodes.SafetyStop": "Sicherheitsstopp",
  "strings.errorCodes.ActiveCommandsInhibited": "Aktive Kommandos verriegelt",
  "strings.errorCodes.6DMouseDeflected": "6D-Maus ausgelenkt",
  "strings.errorCodes.Unknown": "Unbekannter Fehlercode",
  "strings.dialogs.OK": "OK",
  "strings.dialogs.Cancel": "Abbrechen",
  "strings.dialogs.Confirm": "Bestätigen",
  "strings.dialogs.SaveAll": "Alles Speichern",
  "strings.dialogs.Yes": "Ja",
  "strings.dialogs.No": "Nein",
  "strings.dialogs.ErrorTitle": "Fehler",
  "strings.dialogs.GenericErrorMessage": "Fehler bei der Anwendung Ihrer Änderungen. Bitte versuchen Sie es später noch einmal.  Sollte das Problem weiterhin bestehen, kontaktieren Sie bitte unseren Kundenservice unter <a href='mailto:connect.support@kuka.com'>connect.support@kuka.com</a>",
  "strings.commands.Edit": "Bearbeiten",
  "strings.commands.Delete": "Löschen",
  "strings.commands.Copy": "Kopieren",
  "strings.softwareFeatures.Administration": "Verwaltung",
  "strings.softwareFeatures.Licenses": "Lizenzierung",
  "strings.softwareFeatures.ConditionMonitoring": "Zustandsüberwachung",
  "strings.softwareFeatures.Maintenance": "Wartung",
  "strings.softwareFeatures.Reports": "Berichte",
  "strings.roles.UberAdmin": "Uber",
  "strings.roles.OrgAdmin": "Administrator",
  "strings.pageTitles.Administration": "Verwaltung",
  "strings.pageTitles.UserDetails": "Anwenderdetails",
  "strings.pageTitles.RoleDetails": "Rollendetails",
  "strings.pageTitles.AssetGroupDetails": "Robotergruppendetails",
  "strings.pageTitles.DeviceDetails": "Roboterdetails",
  "strings.pageTitles.Home": "Dashboard",
  "strings.pageTitles.Login": "Login",
  "strings.pageTitles.Monitor": "Cloud- & Cluster-Monitor",
  "strings.pageTitles.Unauthorized": "Nicht genehmigt",
  "strings.pageTitles.GlobalFaults": "Fehler",
  "strings.pageTitles.UserSettings": "Benutzereinstellungen",
  "strings.subscriptionType.Plus": "Plus",
  "strings.subscriptionType.Lite": "Lite",
  "strings.notify.guestOrg.Title": "Keine verbundene Organisation",
  "strings.notify.guestOrg.Message": "Sie sind mit keiner Organisation verbunden.  Sie können die Anwendung weiterhin nutzen, jedoch nur mit eingeschränkten Features.  Bitte kontaktieren Sie Ihren Administrator um das Problem zu beheben",
  "strings.errors.upgrade.retrievingLicenses": "Es gab ein Problem beim Abrufen Ihrer verfügbaren Lizenzen.  Bitte versuchen Sie es später noch einmal. Sollte das Problem weiterhin bestehen, kontaktieren Sie bitte unseren Kundenservice unter <a href='mailto:connect.support@kuka.com'>connect.support@kuka.com</a>.",
  "strings.errors.upgrade.applyingLicenses": "Es gab ein Problem beim Upgrade Ihrer Roboter.  Bitte versuchen Sie es später noch einmal. Sollte das Problem weiterhin bestehen, kontaktieren Sie bitte unseren Kundenservice unter <a href='mailto:connect.support@kuka.com'>connect.support@kuka.com</a>.",
  "strings.errors.upgrade.applyingLicensesDowngrade": "Es gab ein Problem beim Downgrade Ihrer Roboter.  Bitte versuchen Sie es später noch einmal. Sollte das Problem weiterhin bestehen, kontaktieren Sie bitte unseren Kundenservice unter <a href='mailto:connect.support@kuka.com'>connect.support@kuka.com</a>.",
  "strings.errors.upgrade.insufficientPrivilege": "Sie haben nicht genügend Rechte, um ein Upgrade der Roboter durchzuführen.  Bitte kontaktieren Sie Ihren Administrator um das Problem zu beheben.",
  "strings.errors.upgrade.insufficientPrivilegeDowngrade": "Sie haben nicht genügend Rechte, um ein Downgrade der Roboter durchzuführen.  Bitte kontaktieren Sie Ihren Administrator um das Problem zu beheben.",
  "strings.errors.upgrade.desktopExpected": "Der Upgrade-Prozess für Roboter ist nicht über KUKA Connect Mobile Experience (oder äußerst enge Desktop-Browser) verfügbar. Bitte melden Sie sich an einem Tablet oder Desktop-Browser an, um ein Upgrade Ihrer Roboter durchzuführen.",
  "strings.errors.upgrade.desktopExpectedDowngrade": "Der Downgrade-Prozess für Roboter ist nicht über KUKA Connect Mobile Experience (oder äußerst enge Desktop-Browser) verfügbar. Bitte melden Sie sich an einem Tablet oder Desktop-Browser an, um ein Upgrade Ihrer Roboter durchzuführen.",
  "views.navbar.MenuTitle": "Menü",
  "views.navbar.menu.Settings": "Benutzereinstellungen",
  "views.navbar.menu.Administration": "Verwaltung",
  "views.navbar.menu.Monitor": "Überwachen",
  "views.navbar.menu.Logout": "Logout",
  "views.navbar.SearchAllPlaceholder": "Alle suchen",
  "views.navbar.NewFaultsButton": "Aktuelle Fehler",
  "views.navbar.FaultsBrokenErrorTooltip": "Aktive Fehler können nicht angezeigt werden. Bitte versuchen Sie es später noch einmal. Sollte das Problem weiterhin bestehen, kontaktieren Sie bitte den Kundenservice.",
  "views.header.breadcrumbs.Dashboard": "Dashboard",
  "views.header.breadcrumbs.AllRobots": "Alle Roboter",
  "views.welcome.Greeting": "Hallo",
  "views.welcome.Prompt": "Was würden Sie gerne tun?",
  "views.welcome.ViewFaultLog": "Alle Fehler anzeigen",
  "views.welcome.CheckRobots": "Roboter anzeigen",
  "views.welcome.ConditionMonitoring": "Bedingungen überwachen",
  "views.welcome.RunReports": "Berichte starten",
  "views.welcome.Admin": "Zugriff Admin",
  "views.welcome.Maintenance": "Wartung",
  "views.welcome.DontShowAgain": "Dieses Launch-Banner nicht mehr anzeigen",
  "views.welcome.UpgradeToPlus": "Upgrade auf Plus",
  "views.sites.SiteNameTableHeader": "Gruppenname",
  "views.sites.SiteTotalAssetsTableHeader": "Gesamtzahl Roboter",
  "views.sites.SiteTotalFaultsTableHeader": "Gesamtzahl Fehler",
  "views.sites.SiteCurrentUptimeRateTableHeader": "Verfügbarkeit 7 Tage",
  "views.sites.SearchAssets": "Roboter suchen",
  "views.sites.Title": "Roboter",
  "views.sites.NoSitesConfiguredWarning": "Im Moment sind keine Robotergruppen mit Ihrem Konto verknüpft.  Bitte kontaktieren Sie Ihren Administrator um das Problem zu beheben.",
  "views.siteAssets.SearchAssets": "Roboter suchen",
  "views.siteAssets.Title": "Robot",
  "views.siteAssets.ConditionTableHeader": "Bedingung",
  "views.siteAssets.AssetNameTableHeader": "Robotername",
  "views.siteAssets.TypeTableHeader": "Typ",
  "views.siteAssets.SerialNumberTableHeader": "Seriennummer",
  "views.siteAssets.SubscriptionTypeTableHeader": "Abo-Typ",
  "views.siteAssets.UpgradeToPlus": "Upgrade auf <b>PLUS</b>",
  "views.siteAssets.NoRobotsWarning": "Im Moment sind keine Roboter mit dieser Gruppe verknüpft.  Bitte kontaktieren Sie Ihren Administrator um das Problem zu beheben.",
  "views.siteTile.RobotsWithFault": "Roboter mit Fehlern",
  "views.siteTile.ActiveRobots": "Aktive Roboter",
  "views.siteTile.ViewFullRobotList": "Gesamte Roboterliste anzeigen",
  "views.productivityInsights.Title": "Zustandsüberwachung",
  "views.productivityInsights.TimeRange": "Zeitspanne:",
  "views.productivityInsights.RotateDeviceMessage": "Gerät drehen um mehr Datengraphen zu erhalten",
  "views.productivityInsights.Min": "Min",
  "views.productivityInsights.Avg": "Durchschnitt",
  "views.productivityInsights.Max": "Max",
  "views.productivityInsights.HistoricalFailed": "Serverfehler beim Abrufen Ihrer historischen Daten; bitte versuchen Sie es später noch einmal.  Sollte das Problem weiterhin bestehen, kontaktieren Sie bitte unseren Kundenservice unter <a href='mailto:connect.support@kuka.com'>connect.support@kuka.com</a>",
  "views.productivityInsights.ScalarFailed": "Serverfehler beim Abrufen Ihrer Skalardaten; bitte versuchen Sie es später noch einmal.  Sollte das Problem weiterhin bestehen, kontaktieren Sie bitte unseren Kundenservice unter <a href='mailto:connect.support@kuka.com'>connect.support@kuka.com</a>",
  "views.productivityInsights.secondaryKpis.OperatingMode": "Betriebsartendauer",
  "views.productivityInsights.secondaryKpis.UptimeCounter": "Zähler Verfügbarkeitszeit",
  "views.productivityInsights.secondaryKpis.RobotKpis": "Roboter KPIs",
  "views.productivityInsights.secondaryKpis.AggregateKpis": "Aggregat KPIs",
  "views.productivityInsights.secondaryKpis.Autonomous": "Automatik",
  "views.productivityInsights.secondaryKpis.Testing1": "Manuell reduzierte Geschwindigkeit (T1)",
  "views.productivityInsights.secondaryKpis.Testing2": "Manuell hohe Geschwindigkeit (T2)",
  "views.productivityInsights.secondaryKpis.External": "Automatik Extern",
  "views.productivityInsights.secondaryKpis.uptime.Days": "Tage",
  "views.productivityInsights.secondaryKpis.uptime.Hours": "Stunden",
  "views.productivityInsights.secondaryKpis.uptime.Minutes": "Minuten",
  "views.productivityInsights.secondaryKpis.uptime.Seconds": "Sekunden",
  "views.productivityInsights.secondaryKpis.Availability": "Konnektivität",
  "views.productivityInsights.secondaryKpis.Motion": "Zeit in Bewegung",
  "views.productivityInsights.tile.AverageDuration": "[{weeks} Wochendurchschnitt]",
  "views.productivityInsights.tile.LegendHeader": "Systemstatus",
  "views.productivityInsights.tile.Robots": "{robots, plural, one{# Roboter} other{# Roboter}}",
  "views.productivityInsights.tile.RobotsLabel": "Roboter",
  "views.productivityInsights.tile.Faults": "{faults, plural, one{# Fehler} other{# Fehler}}",
  "views.productivityInsights.tile.FaultsLabel": "Fehler",
  "views.productivityInsights.tile.RobotsWithFaults": "{robots, plural, one{# Roboter mit Fehlern} other{# Roboter mit Fehlern}}",
  "views.productivityInsights.tile.RobotsWithFaultsLabel": "Roboter mit Fehlern",
  "views.productivityInsights.EmptyKpisWarning": "Keine Infos zur Anzeige verfügbar",
  "views.productivityInsights.EmptyAvailabilityKpiWarning": "Keine Angaben zur Konnektivität verfügbar.",
  "views.productivityInsights.EmptyMotionKpiWarning": "Keine Angaben zur Zeit in Bewegung verfügbar.",
  "views.tables.SearchPlaceholder": "Suche",
  "views.tables.ActionsTableHeader": "Maßnahmen",
  "views.home.assetTable.AssetNameTableHeader": "Robotername",
  "views.home.assetTable.AssetTypeTableHeader": "Robotertyp",
  "views.home.assetTable.AssetIdTableHeader": "Roboterkennzeichen",
  "views.kpis.kpiNames.EnergyConsumption": "Durchschnittlicher Energieverbrauch",
  "views.kpis.kpiNames.Connectivity": "Konnektivität",
  "views.kpis.units.KWH": "kWh",
  "views.kpis.units.Celsius": "Â°C",
  "views.kpis.graphs.historical.EnergyTitle": "Energieverbrauch",
  "views.kpis.graphs.historical.EnergyLabel": "Energieverbrauch",
  "views.kpis.graphs.historical.AveMotorTemperatureTitle": "Durchschnittliche Motortemperatur",
  "views.kpis.graphs.historical.AveMotorTemperatureLabel": "Durchschnittliche Motortemperatur",
  "views.kpis.graphs.historical.MinMotorTemperatureLabel": "Min. Motortemperatur",
  "views.kpis.graphs.historical.MaxMotorTemperatureLabel": "Max. Motortemperatur",
  "views.kpis.graphs.historical.Axis": "Achse {axis}",
  "views.faultLog.FaultLogTabTitle": "Fehlerprotokoll",
  "views.faultLog.faultTable.StatusTableHeader": "Typ",
  "views.faultLog.faultTable.TimeTableHeader": "Datum/Zeit",
  "views.faultLog.faultTable.ProjectTableHeader": "Projekt",
  "views.faultLog.faultTable.FaultCodeTableHeader": "Alarm ID",
  "views.faultLog.faultTable.SerialNumberTableHeader": "Roboterseriennummer",
  "views.faultLog.faultTable.FaultDescriptionTableHeader": "Bericht",
  "views.faultLog.faultTable.DurationTableHeader": "Dauer",
  "views.faultLog.UpgradeToPlus": "Upgrade auf <b>KUKA Connect PLUS</b> um Ereignisse für Ihre Roboter anzuzeigen.",
  "views.faultLog.NoFaultsMessage": "Keine Fehler",
  "views.asset.status.Condition": "Zustand",
  "views.asset.status.Status": "Betriebsart",
  "views.asset.status.SubscriptionTypeCaption": "Abo-Typ",
  "views.asset.status.UpgradeToPlus": "Upgrade auf <b>PLUS</b>",
  "views.asset.status.ViewProductManual": "Produkthandbuch anzeigen",
  "views.asset.status.Download": "Download",
  "views.asset.status.RobotDetails": "Roboterdetails",
  "views.asset.status.RobotType": "Typ",
  "views.asset.status.RobotSerialNumber": "Seriennummer",
  "views.asset.status.ControllerDetails": "Steuerungsdetails",
  "views.asset.status.ControllerType": "Typ",
  "views.asset.status.ControllerSerialNumber": "Seriennummer",
  "views.asset.status.ControllerOSVersion": "Steuerungsfirmware",
  "views.asset.status.NoOperationalDataWarning": "Momentan keine Betriebsdaten anzeigbar.",
  "views.asset.status.CannotDisplayImagesWarning": "Momentan keine verfügbaren Bilder anzeigbar.",
  "views.asset.status.CannotDisplay3dModel": "Ihr Browser kann das 4D-Modell nicht anzeigen.",
  "views.asset.status.UpgradeMessage": "Upgrade auf <b>KUKA Connect PLUS</b> für unser Live 4D-Modell.",
  "views.asset.timeline.RobotTimeline": "Zeitleiste",
  "views.asset.timeline.TimeRange": "Zeitspanne:",
  "views.asset.timeline.Navigation": "Navigation:",
  "views.asset.timeline.TimeRangeMonths": "{months, plural, one{# Monat} other{# Monate}}",
  "views.asset.timeline.TimeRangeWeeks": "{weeks, plural, one{# Woche} other{# Wochen}}",
  "views.asset.timeline.TimeRangeDays": "{days, plural, one{# Tag} other{# Tage}}",
  "views.asset.timeline.TimeRangeHours": "{hours, plural, one{# Stunde} other{# Stunden}}",
  "views.asset.timeline.Current": "Aktuell",
  "views.asset.timeline.ProductivityInsights": "Zustandsüberwachung",
  "views.asset.timeline.EventLog": "Ereignisprotokoll",
  "views.asset.timeline.SearchEventLog": "Ereignisprotokoll suchen",
  "views.asset.timeline.FaultSeries": "Fehler",
  "views.asset.timeline.MaintenanceSeries": "Wartung",
  "views.asset.timeline.HistoricalQueryFailed": "Gerät kann nicht auf Historien-Fehler abgefragt werden. Bitte versuchen Sie es später noch einmal. Sollten das Problem weiterhin bestehen, kontaktieren Sie bitte unseren Kundenservice.",
  "views.assetDetails.status.Condition": "Bedingung",
  "views.assetDetails.status.ViewProductManual": "Produkthandbuch anzeigen",
  "views.maintenance.tile.Title": "Wartung",
  "views.maintenance.tile.Search": "Wartungsplan suchen",
  "views.maintenance.tile.Upcoming": "{cycles, plural, one{Anstehender Wartungszyklus} other{Anstehende Wartungszyklen}}",
  "views.maintenance.tile.Report": "Wartungsreport anzeigen",
  "views.asset.faultBanner.Title": "Fehler",
  "views.asset.faultBanner.ViewProductManual": "Produkthandbuch anzeigen",
  "views.asset.faultBanner.Download": "Download",
  "views.asset.faultBanner.Help": "Hilfe",
  "views.asset.faultBanner.PossibleCauses": "Mögliche Ursachen:",
  "views.asset.faultBanner.UnknownStateWarning": "Gerät kann nicht auf aktive Fehler abgefragt werden.",
  "views.asset.faultBanner.NoTroubleshootingInfo": "Keine zusätzlichen Details",
  "views.asset.faultBanner.ViewAlertInTimeline": "Alarm-Ansicht im Zeitrahmen",
  "views.monitor.NotAvailableOnMobileMessage": "Cloud-Überwachung über KUKA Connect Mobile Experience nicht verfügbar. Bitte von einem Tablet oder Desktop-Browser einloggen, um Ihre Cloud Health anzuzeigen.",
  "views.monitor.runningServices.ServicesTableTitlePrefix": "Services laufen auf",
  "views.monitor.runningServices.servicesTable.ServiceNameTableHeader": "Servicename",
  "views.monitor.runningServices.servicesTable.ServiceVersionTableHeader": "Serviceversion",
  "views.monitor.runningServices.servicesTable.NumReplicasTableHeader": "Anzahl Replikationen",
  "views.monitor.nsmDetails.NsmDetailsTitle": "Nebbiolo System Manager Instanzen",
  "views.monitor.nsmDetails.nsmInstancesTable.HostTableHeader": "Host",
  "views.monitor.nsmDetails.nsmInstancesTable.ConnectedDevicesHeader": "Angeschlossene Geräte",
  "views.monitor.nsmDetails.nsmInstancesTable.StatusHeader": "Aktueller Status",
  "views.monitor.nsmDetails.DeployButtonLabel": "NSM einsetzen...",
  "views.monitor.nsmDetails.NoNsmDeployed": "Kein NSM eingesetzt",
  "views.monitor.nsmDetails.ConfirmDeletion": "Möchten Sie {param} wirklich aus dieser Organisation löschen?",
  "views.monitor.deployNsmDialog.DialogTitle": "NSM Instanz",
  "views.monitor.deployNsmDialog.HostAndPortLabel": "Host und Port",
  "views.monitor.deployNsmDialog.UserNameLabel": "Anwendername",
  "views.monitor.deployNsmDialog.PasswordLabel": "Passwort",
  "views.monitor.deployNsmDialog.HostAndPortPlaceholder": "Bsp.: nsm01.nebbiolo.io:8082",
  "views.monitor.deployNsmDialog.UserNamePlaceholder": "Bsp: admin",
  "views.monitor.deployNsmDialog.DeployFailureMessage": "Problem mit der NSM Instanz",
  "views.monitor.deployNsmDialog.DuplicateError": "Sie haben bereits eine NSM Instanz mit diesem Host & Port und Anwendernamen.",
  "views.monitor.latestUpdates.LatestUpdatesTitle": "Letzte Updates von NSM",
  "views.monitor.latestUpdates.latestUpdatesTable.EntityIdTableHeader": "Unternehmenskennung",
  "views.monitor.latestUpdates.latestUpdatesTable.SerialNumberTableHeader": "Seriennr.",
  "views.monitor.latestUpdates.latestUpdatesTable.TimeTableHeader": "Zeit",
  "views.admin.AdministrationTitle": "Admin-Einstellungen",
  "views.admin.NotAvailableOnMobileMessage": "Administration über KUKA Connect Mobile Experience nicht verfügbar. Bitte von einem Tablet oder Desktop-Browser einloggen, um Ihre Organisation zu verwalten.",
  "views.admin.users.UsersTitle": "Alle Anwender",
  "views.admin.CreateNewUser": "Neuen Anwender hinzufügen",
  "views.admin.CreateAndEditRoles": "Rollen erstellen und bearbeiten",
  "views.admin.CreateAndEditAssetGroups": "Robotergruppen erstellen und bearbeiten",
  "views.admin.CreateNewUserPopover.PopoverTitle": "Neuen Anwender hinzufügen",
  "views.admin.CreateNewUserPopover.InviteUser": "Anwender einladen",
  "views.admin.CreateNewUserPopover.ViewPendingInvites": "Anstehende Einladungen anzeigen",
  "views.admin.saveErrorDialog.GenericErrorMessage": "Fehler bei Übernahme Ihrer Änderungen: {errorMessage}. Bitte versuchen Sie es später noch einmal. Sollte das Problem weiterhin bestehen, kontaktieren Sie bitte unseren Customer Support unter <a href='mailto:connect.support@kuka.com'>connect.support@kuka.com</a>",
  "views.admin.users.userTable.UserNameTableHeader": "Name",
  "views.admin.users.userTable.UserRolesTableHeader": "Rollen",
  "views.admin.users.userTable.UserRolesInterpolation": "{roleCount, plural, =0{} one{& 1 Andere} other{& # Andere}}",
  "views.admin.users.userTable.NoAssociatedRoles": "Keine",
  "views.admin.users.userTable.UserAssetGroupsTableHeader": "Robotergruppen",
  "views.admin.users.userTable.UserGroupsInterpolation": "{groupCount, plural, =0{Keine} one{1 Gruppe} other{# Gruppen}}",
  "views.admin.users.userTable.SearchUsers": "Anwender suchen",
  "views.admin.users.userTable.RemoveUserTooltipText": "Anwender aus Ihrer Organisation entfernen.",
  "views.admin.users.removeUserConfirmationDialog.DialogTitle": "Anwender entfernen",
  "views.admin.users.removeUserConfirmationDialog.DialogMessage": "{param} aus dieser Organisation entfernen?",
  "views.admin.inviteUserDialog.InviteUserDialogTitle": "Anwender einladen",
  "views.admin.inviteUserDialog.EmailLabel": "E-Mail",
  "views.admin.inviteUserDialog.ConfirmInviteButton": "Einladen",
  "views.admin.inviteUserDialog.ErrorTitle": "Fehler bei Anwendereinladung",
  "views.admin.inviteUserDialog.InviteFailedMessage": "Anwendereinladung fehlgeschlagen Entweder kann der Anwender nicht gefunden werden, oder er/sie gehört bereits einer Organisation an.",
  "views.admin.inviteUserDialog.SuccessMessage": "Anwender {email} wurde eingeladen, Ihrer Organisation beizutreten. Email wurde gesendet.",
  "views.admin.inviteUserDialog.SuccessNoEmailMessage": "Anwender {email} wurde eingeladen, Ihrer Organisation beizutreten. Es ist jedoch beim Versuch die Einladung zu schicken ein Fehler aufgetreten.",
  "views.admin.inviteUserDialog.SuccessAlreadyPresentMessage": "Einladung muss nicht versendet werden.  Entweder ist der Anwender bereits Mitglied Ihrer Organisation, oder er hat sich gerade erst in die Applikation eingeloggt und ist jetzt Mitglied Ihrer Organisation.",
  "views.admin.pendingInvitesDialog.DialogTitle": "Anstehende Einladungen",
  "views.admin.pendingInvitesDialog.pendingInvitesTable.EmailTableHeader": "E-Mail",
  "views.admin.pendingInvitesDialog.pendingInvitesTable.TimestampTableHeader": "Eingeladen am",
  "views.admin.pendingInvitesDialog.ConfirmRevokeTitle": "Einladung zurücknehmen?",
  "views.admin.pendingInvitesDialog.ConfirmRevokeMessage": "Möchten Sie die Einladung für {param} wirklich zurücknehmen?",
  "views.admin.pendingInvitesDialog.ConfirmResendTitle": "Einladung noch einmal senden?",
  "views.admin.pendingInvitesDialog.ConfirmResendMessage": "Möchten Sie die Einladung für {param} wirklich noch einmal senden?",
  "views.admin.pendingInvitesDialog.ReinviteNoEmailTitle": "Fehler bei Anwender noch einmal einladen",
  "views.admin.pendingInvitesDialog.ReinviteNoEmailMessage": "Email kann nicht erzeugt werden, bitte wenden Sie sich direkt an {param}.",
  "views.admin.pendingInvitesDialog.ErrorTitle": "Fehler bei Anwender ausladen",
  "views.admin.pendingInvitesDialog.ErrorMessage": "Ausladung von {param} aus der Organisation nicht möglich.  Bitte versuchen Sie es später noch einmal. Sollten das Problem weiterhin bestehen, kontaktieren Sie bitte unseren Kundenservice.",
  "views.admin.userDetails.BasicInfo": "Basisinfos",
  "views.admin.userDetails.FirstNameLabel": "Vorname",
  "views.admin.userDetails.SurnameLabel": "Nachname",
  "views.admin.userDetails.EmailLabel": "E-Mail",
  "views.admin.userDetails.UserNameLabel": "Anwender ID",
  "views.admin.userDetails.SaveAll": "Alles Speichern",
  "views.admin.userDetails.Cancel": "Abbrechen",
  "views.admin.userDetails.RolesTableTitle": "Rollen",
  "views.admin.userDetails.rolesTable.RoleTableHeader": "Rolle",
  "views.admin.userDetails.rolesTable.FeaturesTableHeader": "Berechtigungen",
  "views.admin.userDetails.AssetGroupsTableTitle": "Zugang Robotergruppen",
  "views.admin.userDetails.assetGroupTable.AssetGroupTableHeader": "Robotergruppe",
  "views.admin.userDetails.Roles.AddRoleButtonLabel": "Rolle hinzufügen",
  "views.admin.userDetails.AssetGroups.AddAssetGroupButtonLabel": "Robotergruppen auswählen",
  "views.admin.userDetailsErrorDialog.ErrorDialogTitle": "Fehler bei Speichern von Anwenderinfo",
  "views.admin.userDetails.NoGroupsDialogMessage": "Im Moment sind keine Robotergruppen mit diesem Anwender verknüpft. Sie können Gruppen durch Klicken auf „Robotergruppen erstellen und bearbeiten“ im Hauptadministrationsbildschirm erstellen.",
  "views.admin.userDetails.NoGroupsDialogTitle": "Keine Gruppen",
  "views.admin.roleDetails.RolesTitle": "Rollen",
  "views.admin.roleDetails.AddNewRole": "Neue Rolle hinzufügen",
  "views.admin.roleDetails.SearchRoles": "Rollen suchen",
  "views.admin.roleDetails.Save": "Speichern",
  "views.admin.roleDetails.Cancel": "Abbrechen",
  "views.admin.roleDetails.RolesTableTitle": "Alle Rollen",
  "views.admin.roleDetails.rolesTable.UsersTableHeader": "Anwender",
  "views.admin.roleDetails.rolesTable.RoleNameTableHeader": "Name",
  "views.admin.roleDetails.rolesTable.FeaturesTableHeader": "Software-Features",
  "views.admin.roleDetails.rolesTable.SoftwareFeaturesNone": "Keine",
  "views.admin.roleDetails.rolesTable.SoftwareFeaturesAll": "Alle Features",
  "views.admin.roleDialog.CreateNewRoleTitle": "Neue Rolle erstellen",
  "views.admin.roleDialog.RoleNamePlaceholderText": "Neuer Rollenname",
  "views.admin.roleDialog.SelectSoftwareFeaturesTitle": "Software-Features auswählen",
  "views.admin.roleDialog.SelectRoleTitle": "Rolle auswählen",
  "views.admin.roleDialog.IncludedSoftwareFeatures": "Enthaltene Software-Features",
  "views.admin.roleDialog.EditRoleTitle": "Rolle bearbeiten",
  "views.admin.roleDialog.ExistingRoleLabel": "Bestehende Rolle",
  "views.admin.roleDialog.SelectRolePlaceholder": "Rolle auswählen",
  "views.admin.roleDetailsErrorDialog.ErrorDialogTitle": "Fehler bei Speichern von Rollen",
  "views.admin.assetGroupDetails.AssetGroupsTitle": "Robotergruppen",
  "views.admin.assetGroupDetails.AddNewAssetGroup": "Neue Robotergruppe hinzufügen",
  "views.admin.assetGroupDetails.SearchAssetGroups": "Robotergruppen suchen",
  "views.admin.assetGroupDetails.Save": "Speichern",
  "views.admin.assetGroupDetails.Cancel": "Abbrechen",
  "views.admin.assetGroupDetails.AssetGroupsTableTitle": "Alle Robotergruppen",
  "views.admin.assetGroupDetails.assetGroupTable.AssetGroupNameTableHeader": "Name",
  "views.admin.assetGroupDetails.assetGroupTable.AssetsTableHeader": "Roboter",
  "views.admin.assetGroupDialog.CreateAssetGroupDialogTitle": "Neue Robotergruppe erstellen",
  "views.admin.assetGroupDialog.EditAssetGroupDialogTitle": "Robotergruppe bearbeiten",
  "views.admin.assetGroupDialog.GroupNameLabel": "Gruppenname",
  "views.admin.assetGroupDialog.AssetSelectorCaption": "Roboter auswählen",
  "views.admin.assetGroupDialog.SerialNumberPrefix": "Seriell",
  "views.admin.assetGroupDialog.ViewAllRobots": "Alles anzeigen",
  "views.admin.assetGroupDialog.ViewByFogNode": "Nach Fog Nodes anzeigen",
  "views.admin.assetGroupDialog.SelectAll": "Alles auswählen",
  "views.admin.assetGroupErrorDialog.ErrorDialogTitle": "Fehler bei Speichern von Robotergruppen",
  "views.admin.selectAssetGroupDialog.SelectAssetGroupDialogTitle": "Robotergruppen auswählen",
  "views.admin.selectAssetGroupDialog.SelectGroupLabel": "Gruppen auswählen",
  "views.admin.selectAssetGroupDialog.AddAllGroupsTooltip": "Alle Gruppen hinzufügen",
  "views.admin.selectAssetGroupDialog.RemoveAllGroupsTooltip": "Alle Gruppen entfernen",
  "views.admin.selectAssetGroupDialog.UnassignedGroups": "Nicht zugeordnete Gruppen",
  "views.admin.selectAssetGroupDialog.AssignedGroups": "Zugeordnete Gruppen",
  "views.admin.selectAssetGroupDialog.Groups": " Gruppen",
  "views.unauthorized.UnauthorizedTitle": "Nicht genehmigt",
  "views.unauthorized.UnauthorizedMessage": "Sie sind nicht befugt auf diese Seite zuzugreifen.",
  "views.unauthorized.ContactAdminMessage": "Bitte kontaktieren Sie Ihren lokalen Administrator, wenn Sie der Meinung sind, dass Sie diese Nachricht fälschlicherweise erhalten haben.",
  "views.userSettings.settingsSection.Header": "Einstellungen",
  "views.userSettings.settingsSection.AcountUser": "Anwenderkonto",
  "views.userSettings.settingsSection.UserName": "Anwendername",
  "views.userSettings.settingsSection.UserEmail": "Anwender-Email",
  "views.userSettings.settingsSection.UserID": "Anwender ID:",
  "views.userSettings.localeSection.Header": "Bevorzugte Sprachen",
  "views.userSettings.localeSection.Placeholder": "Anzeigesprache auswählen",
  "views.userSettings.dashboardSection.Header": "Dashboardanpassung",
  "views.userSettings.dashboardSection.dragInstructions": "Ziehen um die Reihenfolge der Kartenanzeige zu ändern:",
  "views.userSettings.dashboardSection.Expanded": "Erweitert?",
  "views.userSettings.dashboardSection.dragLimitations": "Eine Karte kann nur erweitert sein, wenn die vorhergehende Karte erweitert wurde.",
  "views.userSettings.dashboardSection.welcomeBanner": "Launch-Banner beim Startup anzeigen",
  "views.userSettings.buttons.Cancel": "Abbrechen",
  "views.userSettings.buttons.SaveAll": "Alles Speichern",
  "views.login.LoginPrompt": "Bitte loggen Sie sich ein:",
  "views.login.LoginButton": "Einloggen bei KUKA",
  "views.reporting.ReportingTitle": "Berichterstattung",
  "views.reporting.DownloadRobotList": "Roboterliste herunterladen",
  "views.reporting.Download24HrEventLog": "Heutiges Ereignisprotokoll",
  "views.reporting.Download30DayEventLog": "Ereignisprotokoll - Aktueller Monat bis heute",
  "views.reporting.GenerateReportButton": "Bericht erstellen",
  "views.reporting.RobotListReportHeader": "Roboterliste",
  "views.reporting.RobotListDownloadMessage": "Roboterliste herunterladen",
  "views.reporting.MaintenanceReportHeader": "Wartungsbericht",
  "views.reporting.MaintenanceReportDownloadMessage": "Wartungsbericht herunterladen",
  "views.reporting.EventLogReportHeader": "Ereignisprotokollbericht",
  "views.reporting.EventLogReportStartDatePlaceholder": "Startdatum (vor 30 Tagen)",
  "views.reporting.EventLogReportEndDatePlaceholder": "Enddatum (jetzt)",
  "views.reporting.DatePickerClear": "Löschen",
  "views.reporting.DatePickerClose": "Erledigt",
  "views.reporting.DatePickerToday": "Heute",
  "views.reporting.DownloadCsvLink": "CSV herunterladen",
  "views.globalFaults.GlobalFaultsTitle": "Fehlerprotokoll",
  "views.globalFaults.SearchAllFaultsPlaceholder": "Fehlerprotokoll suchen",
  "views.globalFaults.tile.UpgradeMessage": "Upgrade auf <b>KUKA Connect PLUS</b> für unsere Echtzeit-Fehlerprotokollfeature.",
  "views.upgradeCoupon.UpgradeNow": "Jetzt upgraden",
  "views.common.upgradeRobot.upgradeDialog.Title": "Lizenzen anwenden",
  "views.common.upgradeRobot.upgradeDialog.RobotSelectorCaption": "Roboter auswählen",
  "views.common.upgradeRobot.upgradeDialog.SelectAll": "Alles auswählen",
  "views.common.upgradeRobot.upgradeDialog.SerialNumberPrefix": "Seriell",
  "views.common.upgradeRobot.upgradeDialog.ViewAllRobots": "Alles anzeigen",
  "views.common.upgradeRobot.upgradeDialog.ViewByGroups": "Ansicht nach Gruppen",
  "views.common.upgradeRobot.upgradeDialog.AvailableLicensesMessage": "{licenseCount, plural, =0{Es sind keine Upgrade-Lizenzen verfügbar.} one{Sie haben 1 verfügbare Upgrade-Lizenz.} other{Sie haben # verfügbare Upgrade-Lizenzen.}}",
  "views.common.upgradeRobot.upgradeDialog.SelectRobotsMessage": "Wählen Sie die Roboter aus, für die Sie das Upgrade durchführen möchten.",
  "views.common.upgradeRobot.upgradeDialog.SelectRobotsDowngradeMessage": "Wählen Sie die Roboter aus, für die Sie das Downgrade durchführen möchten.",
  "views.common.upgradeRobot.upgradeDialog.PurchaseMessage": "Klicken Sie hier, wenn Sie mehr Lizenzen erwerben möchten.",
  "views.common.upgradeRobot.upgradeDialog.RobotsSelectedMessage": "{robotsSelected, plural, =0{Keine Roboter ausgewählt} one{1 Roboter ausgewählt} other{# Roboter ausgewählt}}",
  "views.common.upgradeRobot.upgradeDialog.UpgradeButton": "Upgrade der ausgewählten Roboter",
  "views.common.upgradeRobot.upgradeDialog.DowngradeButton": "Downgrade der ausgewählten Roboter",
  "views.common.upgradeRobot.upgradeDialog.UberSwitchButton": "Uber: Betriebsart wechseln",
  "views.common.upgradeRobot.upgradePickerDialog.Message": "Sie haben sich für das Upgrade von {robotName} auf <b>KUKA Connect Plus</b> entschieden.  Bitte bestätigen Sie Ihr Abonnement.",
  "views.common.upgradeRobot.upgradePickerDialog.RobotType": "Robotertyp",
  "views.common.upgradeRobot.upgradePickerDialog.SerialNumber": "Seriennummer",
  "views.common.upgradeRobot.upgradePickerDialog.CancelButton": "Upgrade abbrechen",
  "views.common.upgradeRobot.upgradePickerDialog.UpgradeAdditionalButton": "Upgrade zusätzlicher Roboter",
  "views.common.upgradeRobot.upgradePickerDialog.UpgradeThisButton": "Upgrade dieses Roboters auf PLUS",
  "views.common.upgradeRobot.upgradeConfirmationDialog.Title": "Bitte bestätigen Sie das Upgrade der aufgelisteten Roboter",
  "views.common.upgradeRobot.upgradeConfirmationDialog.DowngradeTitle": "Bitte bestätigen Sie das Downgrade der aufgelisteten Roboter",
  "views.common.upgradeRobot.upgradeConfirmationDialog.SerialNumberPrefix": "Seriell",
  "views.common.upgradeRobot.upgradeConfirmationDialog.AssetNameTableHeader": "Robotername",
  "views.common.upgradeRobot.upgradeConfirmationDialog.AssetIdTableHeader": "SN",
  "views.common.upgradeRobot.upgradeConfirmationDialog.AssetTypeTableHeader": "Typ",
  "views.common.upgradeRobot.upgradeConfirmationDialog.AssetActionTableHeader": "Löschen",
  "views.common.upgradeRobot.upgradeConfirmationDialog.CancelButton": "Upgrade abbrechen",
  "views.common.upgradeRobot.upgradeConfirmationDialog.CancelDowngradeButton": "Downgrade abbrechen",
  "views.common.upgradeRobot.upgradeConfirmationDialog.ConfirmButton": "Upgrade bestätigen",
  "views.common.upgradeRobot.upgradeConfirmationDialog.ConfirmDowngradeButton": "Downgrade bestätigen",
  "views.common.upgradeRobot.upgradeResultsDialog.SuccessfulTitle": "Upgrade war erfolgreich",
  "views.common.upgradeRobot.upgradeResultsDialog.SuccessfulDowngradeTitle": "Downgrade war erfolgreich",
  "views.common.upgradeRobot.upgradeResultsDialog.FailureTitle": "Fehler beim Upgrade",
  "views.common.upgradeRobot.upgradeResultsDialog.FailureDowngradeTitle": "Fehler beim Downgrade",
  "views.common.upgradeRobot.upgradeResultsDialog.SuccessfulMessage": "Herzlichen Glückwunsch!  Das Upgrade von {successCount}/{totalCount} Robotern war erfolgreich.",
  "views.common.upgradeRobot.upgradeResultsDialog.SuccessfulDowngradeMessage": "Herzlichen Glückwunsch!  Das Downgrade von {successCount}/{totalCount} Robotern war erfolgreich.",
  "views.common.upgradeRobot.upgradeResultsDialog.SuccessfulSingleMessage": "Herzlichen Glückwunsch!  Das Upgrade Ihres Roboters war erfolgreich.",
  "views.common.upgradeRobot.upgradeResultsDialog.SuccessfulSingleDowngradeMessage": "Herzlichen Glückwunsch!  Das Downpgrade Ihres Roboters war erfolgreich.",
  "views.common.upgradeRobot.upgradeResultsDialog.FailureMessage": "Hoppla!  Nur das Upgrade von {successCount}/{totalCount} Robotern war erfolgreich.  Bitte setzen Sie sich zwecks Fehlerbehebung mit Ihrem Administrator in Verbindung.",
  "views.common.upgradeRobot.upgradeResultsDialog.FailureDowngradeMessage": "Hoppla!  Nur das Downgrade von {successCount}/{totalCount} Robotern war erfolgreich.  Bitte setzen Sie sich zwecks Fehlerbehebung mit Ihrem Administrator in Verbindung.",
  "views.common.upgradeRobot.upgradeResultsDialog.FailureSingleMessage": "Hoppla!  Das Upgrade Ihres Roboters ist fehlgeschlagen.  Bitte setzen Sie sich zwecks Fehlerbehebung mit Ihrem Administrator in Verbindung.",
  "views.common.upgradeRobot.upgradeResultsDialog.FailureSingleDowngradeMessage": "Hoppla!  Das Downgrade Ihres Roboters ist fehlgeschlagen.  Bitte setzen Sie sich zwecks Fehlerbehebung mit Ihrem Administrator in Verbindung.",
  "views.common.upgradeRobot.upgradeResultsDialog.RebootPendingMessage": "Die Website wird aktualisiert, sobald dieser Dialog geschlossen wird, um Ihre Änderungen zu übernehmen.",
  "views.common.upgradeRobot.redirectToStoreDialog.RedirectTitle": "Sie werden weitergeleitet",
  "views.common.upgradeRobot.redirectToStoreDialog.RedirectMessage": "Sobald sich dieser Dialog schließt, werden Sie zu unserem Shop für den Erwerb von Lizenzen weitergeleitet."
}
